  /$$$$$$                  /$$                            /$$$$$$                                 /$$
 /$$__  $$                | $$                           /$$__  $$                               |__/
| $$  \ $$  /$$$$$$   /$$$$$$$  /$$$$$$   /$$$$$$       | $$  \__/  /$$$$$$   /$$$$$$  /$$    /$$ /$$  /$$$$$$$  /$$$$$$
| $$  | $$ /$$__  $$ /$$__  $$ /$$__  $$ /$$__  $$      |  $$$$$$  /$$__  $$ /$$__  $$|  $$  /$$/| $$ /$$_____/ /$$__  $$
| $$  | $$| $$  \__/| $$  | $$| $$$$$$$$| $$  \__/       \____  $$| $$$$$$$$| $$  \__/ \  $$/$$/ | $$| $$      | $$$$$$$$
| $$  | $$| $$      | $$  | $$| $$_____/| $$             /$$  \ $$| $$_____/| $$        \  $$$/  | $$| $$      | $$_____/
|  $$$$$$/| $$      |  $$$$$$$|  $$$$$$$| $$            |  $$$$$$/|  $$$$$$$| $$         \  $/   | $$|  $$$$$$$|  $$$$$$$
 \______/ |__/       \_______/ \_______/|__/             \______/  \_______/|__/          \_/    |__/ \_______/ \_______/
